SEQ/riscv_cpu_tb.vcd
$date
	Sat Feb 21 12:13:58 2026
$end
$version
	Icarus Verilog
$end
$timescale
	1ps
$end
$scope module riscv_cpu_tb $end
$scope module uut $end
$var wire 1 ! clk $end
$var wire 1 " reset $end
$var wire 64 # write_back_data [63:0] $end
$var wire 64 $ read_data2 [63:0] $end
$var wire 64 % read_data1 [63:0] $end
$var wire 64 & pc_plus4 [63:0] $end
$var wire 64 ' pc_out [63:0] $end
$var wire 64 ( pc_next [63:0] $end
$var wire 64 ) pc_branch [63:0] $end
$var wire 64 * mem_read_data [63:0] $end
$var wire 32 + instruction [31:0] $end
$var wire 64 , imm_ext [63:0] $end
$var wire 1 - alu_zero $end
$var wire 64 . alu_result [63:0] $end
$var wire 1 / alu_overflow $end
$var wire 64 0 alu_input_b [63:0] $end
$var wire 4 1 alu_ctrl [3:0] $end
$var wire 1 2 alu_cout $end
$var wire 1 3 alu_carry $end
$var wire 1 4 RegWrite $end
$var wire 1 5 MemtoReg $end
$var wire 1 6 MemWrite $end
$var wire 1 7 MemRead $end
$var wire 1 8 Branch $end
$var wire 1 9 ALUSrc $end
$var wire 2 : ALUOp [1:0] $end
$upscope $end
$upscope $end
$enddefinitions $end
$comment Show the parameter values. $end
$dumpall
$end
#0
$dumpvars
b0 :
19
08
07
06
05
14
03
02
b10 1
b1010 0
0/
b1010 .
0-
b1010 ,
b101000000000000010010011 +
b0 *
b10100 )
b100 (
b0 '
b100 &
b0 %
bx $
b1010 #
1"
0!
$end
#2000
0"
#5000
b0 #
1-
b0 .
b0 $
b0 0
b0 ,
b100010011 +
b1000 (
b100 )
b1000 &
b100 '
1!
#10000
0!
#15000
b110010011 +
b1100 (
b1000 )
b1100 &
b1000 '
1!
#20000
0!
#25000
b1 #
0-
b1 .
b1010 $
b1 0
b1 ,
b100000000001000010011 +
b10000 (
b1110 )
b10000 &
b1100 '
1!
#30000
0!
#35000
b0 #
1-
b0 .
04
16
b0 $
b0 0
b0 ,
b1100010011000000100011 +
b10100 (
b10000 )
b10100 &
b10000 '
1!
#40000
0!
#45000
b1 #
0-
b1 .
14
06
b1010 $
b1 0
b1 ,
b100010000000100010011 +
b11000 (
b10110 )
b11000 &
b10100 '
1!
#50000
0!
#55000
b1 #
0-
b1 .
04
16
b1 $
b0 0
b0 ,
b1 %
b10000010011000000100011 +
b11100 (
b11000 )
b11100 &
b11000 '
1!
#60000
0!
#65000
b10 #
0-
b10 .
14
06
b1010 $
b1 0
b1 ,
b100010000000100010011 +
b100000 (
b11110 )
b100000 &
b11100 '
1!
#70000
0!
#75000
b10 #
0-
b10 .
b10 $
b10 0
b10 ,
b0 %
b1000000000001010010011 +
b100100 (
b100100 )
b100100 &
b100000 '
1!
#80000
0!
#85000
b1111111111111111111111111111111111111111111111111111111111111000 #
13
0-
b1111111111111111111111111111111111111111111111111111111111111000 .
b110 1
b1 :
04
09
18
b1010 $
b10 %
b1010 0
b10000 ,
b100101000100001100011 +
b101000 (
b1000100 )
b101000 &
b100100 '
1!
#90000
0!
#95000
b1 #
03
0-
b1 .
b10 1
b1 0
b10 :
14
08
b1 $
b0 %
b0 ,
b10000011000001100110011 +
b101100 (
b101000 )
b101100 &
b101000 '
1!
#100000
0!
#105000
b10 #
0-
b10 .
b0 0
b0 :
04
19
16
b10 %
b11000010011000000100011 +
b110000 (
b101100 )
b110000 &
b101100 '
1!
#110000
0!
#115000
b11 #
0-
b11 .
14
06
b1010 $
b1 0
b1 ,
b100010000000100010011 +
b110100 (
b110010 )
b110100 &
b110000 '
1!
#120000
0!
#125000
b11 #
0-
b11 .
b10 %
b100101000001010010011 +
b111000 (
b110110 )
b111000 &
b110100 '
1!
#130000
0!
#135000
b1 #
0-
b1 .
b10 :
09
b1 $
b1 0
b0 ,
b0 %
b10000000000000110110011 +
b111100 (
b111000 )
b111100 &
b111000 '
1!
#140000
0!
#145000
b11000000000001000110011 +
b1000000 (
b111100 )
b1000000 &
b111100 '
1!
#150000
0!
#155000
0/
b0 #
b0 0
03
1-
b0 .
b1111111111111111111111111111111111111111111111111111111111110010 ,
b1 :
04
18
b0 $
b110 1
b11111110000000000000100111100011 +
b100100 (
b100100 )
b1000100 &
b1000000 '
1!
#160000
0!
#165000
13
0/
b1111111111111111111111111111111111111111111111111111111111111001 #
0-
b1111111111111111111111111111111111111111111111111111111111111001 .
b1010 0
b1010 $
b11 %
b10000 ,
b100101000100001100011 +
b101000 (
b1000100 )
b101000 &
b100100 '
1!
#170000
0!
#175000
b10 #
03
0-
b10 .
b10 1
b1 0
b10 :
14
08
b1 $
b1 %
b0 ,
b10000011000001100110011 +
b101100 (
b101000 )
b101100 &
b101000 '
1!
#180000
0!
#185000
b11 #
0-
b11 .
b0 0
b0 :
04
19
16
b11 %
b10 $
b11000010011000000100011 +
b110000 (
b101100 )
b110000 &
b101100 '
1!
#190000
0!
#195000
b100 #
0-
b100 .
14
06
b1010 $
b1 0
b1 ,
b100010000000100010011 +
b110100 (
b110010 )
b110100 &
b110000 '
1!
#200000
0!
#205000
b100 #
0-
b100 .
b11 %
b100101000001010010011 +
b111000 (
b110110 )
b111000 &
b110100 '
1!
#210000
0!
#215000
b1 #
0-
b1 .
b10 :
09
b1 $
b1 0
b0 ,
b0 %
b10000000000000110110011 +
b111100 (
b111000 )
b111100 &
b111000 '
1!
#220000
0!
#225000
b10 #
0-
b10 .
b10 0
b10 $
b11000000000001000110011 +
b1000000 (
b111100 )
b1000000 &
b111100 '
1!
#230000
0!
#235000
0/
b0 #
b0 0
03
1-
b0 .
b1111111111111111111111111111111111111111111111111111111111110010 ,
b1 :
04
18
b0 $
b110 1
b11111110000000000000100111100011 +
b100100 (
b100100 )
b1000100 &
b1000000 '
1!
#240000
0!
#245000
13
0/
b1111111111111111111111111111111111111111111111111111111111111010 #
0-
b1111111111111111111111111111111111111111111111111111111111111010 .
b1010 0
b1010 $
b100 %
b10000 ,
b100101000100001100011 +
b101000 (
b1000100 )
b101000 &
b100100 '
1!
#250000
0!
#255000
b11 #
03
0-
b11 .
b10 1
b10 0
b10 :
14
08
b10 $
b1 %
b0 ,
b10000011000001100110011 +
b101100 (
b101000 )
b101100 &
b101000 '
1!
#260000
0!
#265000
b100 #
0-
b100 .
b0 0
b0 :
04
19
16
b100 %
b11 $
b11000010011000000100011 +
b110000 (
b101100 )
b110000 &
b101100 '
1!
#270000
0!
#275000
b101 #
0-
b101 .
14
06
b1010 $
b1 0
b1 ,
b100010000000100010011 +
b110100 (
b110010 )
b110100 &
b110000 '
1!
#280000
0!
#285000
b101 #
0-
b101 .
b100 %
b100101000001010010011 +
b111000 (
b110110 )
b111000 &
b110100 '
1!
#290000
0!
#295000
b10 #
0-
b10 .
b10 :
09
b10 $
b10 0
b0 ,
b0 %
b10000000000000110110011 +
b111100 (
b111000 )
b111100 &
b111000 '
1!
#300000
0!
#305000
b11 #
0-
b11 .
b11 0
b11 $
b11000000000001000110011 +
b1000000 (
b111100 )
b1000000 &
b111100 '
1!
#310000
0!
#315000
0/
b0 #
b0 0
03
1-
b0 .
b1111111111111111111111111111111111111111111111111111111111110010 ,
b1 :
04
18
b0 $
b110 1
b11111110000000000000100111100011 +
b100100 (
b100100 )
b1000100 &
b1000000 '
1!
#320000
0!
#325000
13
0/
b1111111111111111111111111111111111111111111111111111111111111011 #
0-
b1111111111111111111111111111111111111111111111111111111111111011 .
b1010 0
b1010 $
b101 %
b10000 ,
b100101000100001100011 +
b101000 (
b1000100 )
b101000 &
b100100 '
1!
#330000
0!
#335000
b101 #
03
0-
b101 .
b10 1
b11 0
b10 :
14
08
b11 $
b10 %
b0 ,
b10000011000001100110011 +
b101100 (
b101000 )
b101100 &
b101000 '
1!
#340000
0!
#345000
b101 #
0-
b101 .
b0 0
b0 :
04
19
16
b101 %
b101 $
b11000010011000000100011 +
b110000 (
b101100 )
b110000 &
b101100 '
1!
#350000
0!
#355000
b110 #
0-
b110 .
14
06
b1010 $
b1 0
b1 ,
b100010000000100010011 +
b110100 (
b110010 )
b110100 &
b110000 '
1!
#360000
0!
#365000
b110 #
0-
b110 .
b101 %
b100101000001010010011 +
b111000 (
b110110 )
b111000 &
b110100 '
1!
#370000
0!
#375000
b11 #
0-
b11 .
b10 :
09
b11 $
b11 0
b0 ,
b0 %
b10000000000000110110011 +
b111100 (
b111000 )
b111100 &
b111000 '
1!
#380000
0!
#385000
b101 #
0-
b101 .
b101 0
b101 $
b11000000000001000110011 +
b1000000 (
b111100 )
b1000000 &
b111100 '
1!
#390000
0!
#395000
0/
b0 #
b0 0
03
1-
b0 .
b1111111111111111111111111111111111111111111111111111111111110010 ,
b1 :
04
18
b0 $
b110 1
b11111110000000000000100111100011 +
b100100 (
b100100 )
b1000100 &
b1000000 '
1!
#400000
0!
#405000
13
0/
b1111111111111111111111111111111111111111111111111111111111111100 #
0-
b1111111111111111111111111111111111111111111111111111111111111100 .
b1010 0
b1010 $
b110 %
b10000 ,
b100101000100001100011 +
b101000 (
b1000100 )
b101000 &
b100100 '
1!
#410000
0!
#415000
b1000 #
03
0-
b1000 .
b10 1
b101 0
b10 :
14
08
b101 $
b11 %
b0 ,
b10000011000001100110011 +
b101100 (
b101000 )
b101100 &
b101000 '
1!
#420000
0!
#425000
b110 #
0-
b110 .
b0 0
b0 :
04
19
16
b110 %
b1000 $
b11000010011000000100011 +
b110000 (
b101100 )
b110000 &
b101100 '
1!
#430000
0!
#435000
b111 #
0-
b111 .
14
06
b1010 $
b1 0
b1 ,
b100010000000100010011 +
b110100 (
b110010 )
b110100 &
b110000 '
1!
#440000
0!
#445000
b111 #
0-
b111 .
b110 %
b100101000001010010011 +
b111000 (
b110110 )
b111000 &
b110100 '
1!
#450000
0!
#455000
b101 #
0-
b101 .
b10 :
09
b101 $
b101 0
b0 ,
b0 %
b10000000000000110110011 +
b111100 (
b111000 )
b111100 &
b111000 '
1!
#460000
0!
#465000
b1000 #
0-
b1000 .
b1000 0
b1000 $
b11000000000001000110011 +
b1000000 (
b111100 )
b1000000 &
b111100 '
1!
#470000
0!
#475000
0/
b0 #
b0 0
03
1-
b0 .
b1111111111111111111111111111111111111111111111111111111111110010 ,
b1 :
04
18
b0 $
b110 1
b11111110000000000000100111100011 +
b100100 (
b100100 )
b1000100 &
b1000000 '
1!
#480000
0!
#485000
13
0/
b1111111111111111111111111111111111111111111111111111111111111101 #
0-
b1111111111111111111111111111111111111111111111111111111111111101 .
b1010 0
b1010 $
b111 %
b10000 ,
b100101000100001100011 +
b101000 (
b1000100 )
b101000 &
b100100 '
1!
#490000
0!
#495000
b1101 #
03
0-
b1101 .
b10 1
b1000 0
b10 :
14
08
b1000 $
b101 %
b0 ,
b10000011000001100110011 +
b101100 (
b101000 )
b101100 &
b101000 '
1!
#500000
0!
#505000
b111 #
0-
b111 .
b0 0
b0 :
04
19
16
b111 %
b1101 $
b11000010011000000100011 +
b110000 (
b101100 )
b110000 &
b101100 '
1!
#510000
0!
#515000
b1000 #
0-
b1000 .
14
06
b1010 $
b1 0
b1 ,
b100010000000100010011 +
b110100 (
b110010 )
b110100 &
b110000 '
1!
#520000
0!
#525000
b1000 #
0-
b1000 .
b111 %
b100101000001010010011 +
b111000 (
b110110 )
b111000 &
b110100 '
1!
#530000
0!
#535000
b1000 #
0-
b1000 .
b10 :
09
b1000 $
b1000 0
b0 ,
b0 %
b10000000000000110110011 +
b111100 (
b111000 )
b111100 &
b111000 '
1!
#540000
0!
#545000
b1101 #
0-
b1101 .
b1101 0
b1101 $
b11000000000001000110011 +
b1000000 (
b111100 )
b1000000 &
b111100 '
1!
#550000
0!
#555000
0/
b0 #
b0 0
03
1-
b0 .
b1111111111111111111111111111111111111111111111111111111111110010 ,
b1 :
04
18
b0 $
b110 1
b11111110000000000000100111100011 +
b100100 (
b100100 )
b1000100 &
b1000000 '
1!
#560000
0!
#565000
13
0/
b1111111111111111111111111111111111111111111111111111111111111110 #
0-
b1111111111111111111111111111111111111111111111111111111111111110 .
b1010 0
b1010 $
b1000 %
b10000 ,
b100101000100001100011 +
b101000 (
b1000100 )
b101000 &
b100100 '
1!
#570000
0!
#575000
b10101 #
03
0-
b10101 .
b10 1
b1101 0
b10 :
14
08
b1101 $
b0 ,
b10000011000001100110011 +
b101100 (
b101000 )
b101100 &
b101000 '
1!
#580000
0!
#585000
b1000 #
0-
b1000 .
b0 0
b0 :
04
19
16
b10101 $
b11000010011000000100011 +
b110000 (
b101100 )
b110000 &
b101100 '
1!
#590000
0!
#595000
b1001 #
0-
b1001 .
14
06
b1010 $
b1 0
b1 ,
b100010000000100010011 +
b110100 (
b110010 )
b110100 &
b110000 '
1!
#600000
0!
#605000
b1001 #
0-
b1001 .
b1000 %
b100101000001010010011 +
b111000 (
b110110 )
b111000 &
b110100 '
1!
#610000
0!
#615000
b1101 #
0-
b1101 .
b10 :
09
b1101 $
b1101 0
b0 ,
b0 %
b10000000000000110110011 +
b111100 (
b111000 )
b111100 &
b111000 '
1!
#620000
0!
#625000
b10101 #
0-
b10101 .
b10101 0
b10101 $
b11000000000001000110011 +
b1000000 (
b111100 )
b1000000 &
b111100 '
1!
#630000
0!
#635000
0/
b0 #
b0 0
03
1-
b0 .
b1111111111111111111111111111111111111111111111111111111111110010 ,
b1 :
04
18
b0 $
b110 1
b11111110000000000000100111100011 +
b100100 (
b100100 )
b1000100 &
b1000000 '
1!
#640000
0!
#645000
13
0/
b1111111111111111111111111111111111111111111111111111111111111111 #
0-
b1111111111111111111111111111111111111111111111111111111111111111 .
b1010 0
b1010 $
b1001 %
b10000 ,
b100101000100001100011 +
b101000 (
b1000100 )
b101000 &
b100100 '
1!
#650000
0!
#655000
b100010 #
03
0-
b100010 .
b10 1
b10101 0
b10 :
14
08
b10101 $
b1101 %
b0 ,
b10000011000001100110011 +
b101100 (
b101000 )
b101100 &
b101000 '
1!
#660000
0!
#665000
b1001 #
0-
b1001 .
b0 0
b0 :
04
19
16
b1001 %
b100010 $
b11000010011000000100011 +
b110000 (
b101100 )
b110000 &
b101100 '
1!
#670000
0!
#675000
b1010 #
0-
b1010 .
14
06
b1010 $
b1 0
b1 ,
b100010000000100010011 +
b110100 (
b110010 )
b110100 &
b110000 '
1!
#680000
0!
#685000
b1010 #
0-
b1010 .
b1001 %
b100101000001010010011 +
b111000 (
b110110 )
b111000 &
b110100 '
1!
#690000
0!
#695000
b10101 #
0-
b10101 .
b10 :
09
b10101 $
b10101 0
b0 ,
b0 %
b10000000000000110110011 +
b111100 (
b111000 )
b111100 &
b111000 '
1!
#700000
0!
#705000
b100010 #
0-
b100010 .
b100010 0
b100010 $
b11000000000001000110011 +
b1000000 (
b111100 )
b1000000 &
b111100 '
1!
#710000
0!
#715000
0/
b0 #
b0 0
03
1-
b0 .
b1111111111111111111111111111111111111111111111111111111111110010 ,
b1 :
04
18
b0 $
b110 1
b11111110000000000000100111100011 +
b100100 (
b100100 )
b1000100 &
b1000000 '
1!
#720000
0!
#725000
03
0/
b0 #
1-
b0 .
b1010 0
b1010 $
b1010 %
b10000 ,
b100101000100001100011 +
b1000100 (
b1000100 )
b101000 &
b100100 '
1!
#730000
0!
#735000
b0 #
1-
b0 .
b10 1
b0 0
b10 :
14
08
b0 $
b0 %
b0 ,
b100110011 +
b1001000 (
b1000100 )
b1001000 &
b1000100 '
1!
#740000
0!
#745000
b0 :
19
15
17
b10011010100000011 +
b1001100 (
b1001000 )
b1001100 &
b1001000 '
1!
#750000
0!
#755000
0-
b1 .
b1010 $
b1 0
b1 ,
b100010011010110000011 +
b1010000 (
b1001110 )
b1010000 &
b1001100 '
1!
#760000
0!
#765000
0-
b10 .
b0 $
b10 0
b10 ,
b1000010011011000000011 +
b1010100 (
b1010100 )
b1010100 &
b1010000 '
1!
#770000
0!
#775000
0-
b11 .
b10101 $
b11 0
b11 ,
b1100010011011010000011 +
b1011000 (
b1011010 )
b1011000 &
b1010100 '
1!
#780000
0!
#785000
0-
b100 .
b100010 $
b100 0
b100 ,
b10000010011011100000011 +
b1011100 (
b1100000 )
b1011100 &
b1011000 '
1!
#790000
0!
#795000
0-
b101 .
b1010 $
b101 0
b101 ,
b10100010011011110000011 +
b1100000 (
b1100110 )
b1100000 &
b1011100 '
1!
#800000
0!
#805000
0-
b110 .
b100010 $
b110 0
b110 ,
b11000010011100000000011 +
b1100100 (
b1101100 )
b1100100 &
b1100000 '
1!
#810000
0!
#815000
0-
b111 .
bx $
b111 0
b111 ,
b11100010011100010000011 +
b1101000 (
b1110010 )
b1101000 &
b1100100 '
1!
#820000
0!
#825000
0-
b1000 .
b1000 0
b1000 ,
b100000010011100100000011 +
b1101100 (
b1111000 )
b1101100 &
b1101000 '
1!
#830000
0!
#835000
b100010 #
b100010 *
0-
b1001 .
b1001 0
b1001 ,
b100100010011100110000011 +
b1110000 (
b1111110 )
b1110000 &
b1101100 '
1!
#840000
0!
#845000
1-
b0 .
b0 #
b0 *
04
09
05
07
b0 $
b0 0
b0 ,
b0 +
b1110100 (
b1110000 )
b1110100 &
b1110000 '
1!
#850000
0!
#855000
b1111000 (
b1110100 )
b1111000 &
b1110100 '
1!
#860000
0!
#865000
b1111100 (
b1111000 )
b1111100 &
b1111000 '
1!
#870000
0!
#875000
b10000000 (
b1111100 )
b10000000 &
b1111100 '
1!
